[
  {
    "heading": "Dedicated Teams",
    "content": "Benefit from our committed teams who ensure your success is personal. Count on expert guidance and exceptional results throughout your project journey.",
    "svg": "groups"
  },
  {
    "heading": "Individuality",
    "content": "Customization is paramount to productivity. That’s why Linux on Nabu promises to push for user personalization and preference. Everyone is unique and your device should be too. ",
    "svg": "verified"
  },
  {
    "heading": "Comprehensive Documentation",
    "content": "Integrate with ease using Linux on Nabu's exhaustive guides and libraries. Achieve seamless product adoption with our full suite of documentation designed for your success.",
    "svg": "books"
  },
  {
    "heading": "Power to you",
    "content": "Our open-source systems are here to help you get through the day. Want to do more with your device? Power users will enjoy Unix command-line utilities. And normal user can continue using their tablets as usual.",
    "svg": "frame"
  }
]